# Viruses: FluA
dates,pointprevalence_low,pointprevalence_estimate,pointprevalence_high
2022-11-20,0.9,2,4.6
2022-11-27,1.7,3.5,7.2
2022-12-04,2.1,3.9,7.3
2022-12-11,1.4,2.7,5.2
2022-12-25,0.6,1.2,2.4
2023-01-01,0.42,0.8,1.5
2023-01-08,0.38,0.74,1.4
2023-01-15,0,0,0
2023-01-22,0,0,0
2023-01-29,0,0,0
2023-02-05,0,0,0
2023-02-12,0,0,0
2023-02-19,0,0,0
2023-02-26,0,0,0
2023-03-05,0,0,0
2023-03-12,0,0,0
2023-03-19,0,0,0
2023-03-26,0,0,0
2023-04-02,0,0,0
2023-04-16,0,0,0
2023-04-23,0,0,0
2023-04-30,0,0,0
2023-05-07,0,0,0
2023-05-14,0,0,0
2023-05-21,0,0,0
2023-05-28,0,0,0
2023-06-04,0,0,0
2023-06-11,0.14,0.31,0.69
2023-06-18,0,0,0
2023-06-25,0,0,0
2023-07-02,0,0,0
2023-07-09,0.14,0.32,0.73
2023-07-16,0.14,0.31,0.69
2023-07-23,0,0,0
2023-07-30,0.16,0.36,0.82
2023-08-06,0,0,0
2023-08-13,0,0,0
2023-08-20,0,0,0
2023-09-03,0,0,0
2023-09-10,0,0,0
2023-09-17,0,0,0
2023-10-01,0,0,0
2023-10-08,0,0,0
2023-10-15,0,0,0
2023-10-22,0,0,0
2023-10-29,0,0,0
2023-11-05,0,0,0
2023-11-12,0.084,0.17,0.34
2023-11-19,0.078,0.15,0.3
2023-11-26,0.27,0.54,1.1
2023-12-03,0.48,0.93,1.9
2023-12-10,0.086,0.17,0.34
2023-12-24,0.32,0.63,1.3
2023-12-31,0.71,1.4,2.6
2024-01-07,0.48,0.95,1.9
2024-01-14,0.19,0.4,0.83
2024-01-21,0.22,0.42,0.82
2024-01-28,0.23,0.45,0.88
2024-02-04,0,0,0
2024-02-11,0,0,0
2024-02-18,0.091,0.18,0.37
2024-02-25,0.32,0.64,1.3
2024-03-03,0.4,0.84,1.7
2024-03-10,0.083,0.17,0.33
2024-03-17,0.097,0.2,0.41
2024-03-24,0,0,0
2024-03-31,0,0,0
2024-04-07,0.29,0.6,1.2
2024-04-14,0,0,0
2024-04-21,0,0,0
2024-04-28,0,0,0
2024-05-05,0.084,0.17,0.34
2024-05-12,0,0,0
2024-05-19,0.097,0.2,0.41
2024-05-26,0.1,0.21,0.45
