# Viruses: ADV
dates,pointprevalence_low,pointprevalence_estimate,pointprevalence_high
2024-01-28,0.16,0.32,0.66
2024-02-04,0.26,0.53,1.1
2024-02-11,0.24,0.49,0.99
2024-02-18,0,0,0
2024-02-25,0.37,0.73,1.5
2024-03-03,0.24,0.45,0.86
2024-03-10,0.084,0.17,0.35
2024-03-17,0.076,0.15,0.3
2024-03-24,0,0,0
2024-03-31,0.082,0.17,0.34
2024-04-07,0,0,0
2024-04-14,0.091,0.19,0.39
2024-04-21,0,0,0
2024-04-28,0,0,0
2024-05-05,0,0,0
2024-05-12,0,0,0
2024-05-19,0.12,0.25,0.55
2024-05-26,0,0,0
